{
  "cursos": [
    {
      "nome": "Angular Material",
      "id": "AYA_vwW"
    },
    {
      "nome": "Material",
      "id": "j7JJrNA"
    },
    {
      "nome": "Material 2",
      "id": "oHY8-rH"
    },
    {
      "nome": "Material 3",
      "id": "D2__JTl"
    },
    {
      "id": "PV_8tWd",
      "nome": "Material 7"
    },
    {
      "id": "lg9_v-3",
      "nome": "Material "
    }
  ]
}